<?xml version="1.0" standalone="no"?>
<!DOCTYPE svg PUBLIC "-//W3C//DTD SVG 20010904//EN"
 "http://www.w3.org/TR/2001/REC-SVG-20010904/DTD/svg10.dtd">
<svg version="1.0" xmlns="http://www.w3.org/2000/svg"
 width="16.000000pt" height="16.000000pt" viewBox="0 0 16.000000 16.000000"
 preserveAspectRatio="xMidYMid meet">
<metadata>
Created by potrace 1.11, written by Peter Selinger 2001-2013
</metadata>
<g transform="translate(0.000000,16.000000) scale(0.001760,-0.001760)"
fill="#000000" stroke="none">
<path d="M3287 8094 c-1 -1 -49 -5 -107 -9 -121 -8 -165 -12 -165 -15 0 -2
-15 -5 -60 -13 -55 -10 -139 -38 -195 -64 -30 -15 -57 -27 -60 -28 -19 -3
-101 -65 -149 -113 -46 -45 -131 -167 -131 -187 0 -2 -5 -16 -12 -32 -6 -15
-12 -32 -13 -38 -2 -5 -8 -28 -14 -50 -33 -123 -33 -438 -1 -610 6 -27 11 -59
13 -70 2 -11 11 -37 20 -59 9 -21 17 -40 17 -42 0 -7 54 -88 71 -107 9 -10 30
-28 47 -41 l32 -23 -50 -32 c-28 -18 -50 -37 -50 -42 0 -5 -6 -9 -13 -9 -21 0
-118 -155 -127 -205 -1 -5 -7 -19 -13 -30 -6 -11 -10 -23 -9 -26 0 -4 -3 -21
-8 -39 -5 -18 -12 -52 -15 -74 -4 -23 -8 -54 -11 -71 -11 -62 -15 -146 -18
-358 -3 -208 1 -268 25 -367 11 -44 58 -160 69 -170 3 -3 11 -17 18 -31 15
-28 66 -84 126 -137 43 -39 192 -122 219 -122 9 0 17 -4 17 -8 0 -5 6 -9 13
-9 6 -1 48 -10 92 -22 44 -11 92 -21 106 -21 14 0 29 -3 32 -7 11 -10 97 -15
287 -16 187 -1 280 4 375 24 33 6 69 13 80 15 11 1 22 3 25 5 3 1 10 3 15 4 6
1 19 5 30 10 11 4 49 19 85 33 71 28 158 78 177 102 7 8 13 11 13 7 0 -12 76
68 118 126 34 47 88 156 98 200 21 89 27 141 29 228 1 47 4 90 8 96 4 6 4 13
0 17 -4 3 -8 61 -9 129 -3 180 -16 307 -43 417 -7 25 -14 55 -16 66 -3 12 -12
35 -20 50 -8 16 -15 33 -15 38 0 28 -143 195 -167 196 -5 0 -17 7 -27 15 -18
14 -16 17 38 70 31 30 56 62 56 71 0 8 4 13 8 10 8 -5 58 128 67 179 2 17 7
41 10 55 28 133 25 477 -4 578 -5 17 -7 32 -3 32 3 0 1 5 -6 12 -7 7 -12 18
-12 24 0 20 -58 140 -75 154 -8 7 -15 18 -15 24 0 25 -157 159 -215 185 -11 5
-41 18 -65 29 -40 18 -81 33 -87 33 -2 0 -17 5 -35 10 -39 12 -49 14 -108 25
-55 9 -66 11 -155 18 -38 4 -85 8 -103 9 -18 2 -34 2 -35 1z m78 -615 c67 -25
127 -84 144 -140 7 -22 10 -43 7 -46 -2 -3 -1 -16 4 -29 5 -13 6 -24 2 -24 -4
0 -7 -57 -7 -128 0 -70 -4 -136 -9 -147 -5 -11 -8 -24 -7 -28 0 -4 -20 -29
-46 -55 -54 -53 -102 -70 -181 -66 -55 3 -142 39 -142 60 0 8 -4 14 -10 14 -5
0 -20 21 -32 48 -21 43 -23 61 -23 222 0 192 3 205 65 267 32 32 107 67 154
71 14 1 51 -7 81 -19z m-5 -1282 c40 -11 76 -34 104 -65 6 -7 17 -19 24 -27 6
-7 12 -20 12 -29 0 -8 4 -17 8 -20 13 -8 8 -502 -6 -518 -6 -8 -9 -17 -6 -20
8 -9 -69 -84 -106 -103 -50 -26 -136 -28 -186 -5 -48 21 -114 81 -114 104 0 9
-4 16 -8 16 -11 0 -11 -2 -13 278 -1 258 3 280 50 327 33 33 51 46 51 38 0 -4
4 -3 8 3 18 27 119 39 182 21z"/>
<path d="M3150 7119 c0 -114 26 -172 86 -193 76 -26 138 7 163 85 6 20 13 71
15 113 l3 76 -133 0 -134 0 0 -81z"/>
<path d="M3228 6092 c-67 -30 -75 -59 -76 -281 -1 -172 1 -200 18 -238 15 -35
28 -48 66 -65 l47 -20 43 21 c75 36 84 66 84 290 0 228 -7 256 -74 289 -51 26
-59 26 -108 4z"/>
<path d="M5697 8094 c-1 -2 -48 -6 -104 -8 -104 -6 -149 -11 -220 -27 -24 -5
-46 -8 -50 -7 -5 0 -15 -2 -23 -5 -8 -3 -44 -16 -80 -27 -159 -51 -281 -134
-391 -265 -24 -29 -110 -194 -117 -225 -2 -8 -12 -49 -22 -90 -11 -41 -22
-102 -26 -135 -9 -73 -9 -1571 -1 -1670 14 -158 92 -379 162 -461 6 -6 17 -22
25 -34 60 -90 214 -203 348 -255 117 -45 125 -48 137 -49 24 -3 114 -22 118
-25 17 -13 370 -19 472 -9 85 9 222 38 265 55 8 4 17 7 20 8 59 20 190 87 190
97 0 4 5 8 11 8 18 0 101 70 148 124 24 28 61 80 82 116 21 36 43 71 49 78 6
6 9 12 6 12 -2 0 6 27 19 60 20 51 35 105 52 190 1 8 6 38 9 65 9 66 12 1656
3 1675 -4 8 -9 38 -12 65 -3 28 -13 75 -22 105 -8 30 -17 60 -18 65 -1 6 -6
16 -10 23 -5 6 -6 12 -3 12 6 0 -68 143 -85 165 -46 57 -130 142 -170 171
-101 74 -282 146 -421 168 -81 13 -145 19 -180 20 -21 0 -38 4 -38 8 0 5 -7 5
-16 0 -8 -5 -35 -6 -60 -2 -24 4 -45 5 -47 4z m141 -684 c17 -6 32 -17 32 -23
0 -6 3 -8 6 -4 6 6 68 -59 62 -66 -2 -2 3 -11 11 -20 7 -10 10 -17 5 -17 -5 0
-3 -4 4 -9 19 -12 37 -277 19 -288 -4 -2 -4 -9 -1 -15 8 -13 8 -777 0 -785 -3
-3 -3 -11 1 -16 8 -14 7 -389 -1 -441 -13 -82 -81 -172 -154 -204 -54 -23
-158 -24 -204 -1 -47 24 -108 77 -108 94 0 7 -5 15 -11 17 -5 2 -11 10 -13 18
-2 8 -9 29 -15 45 -10 23 -13 200 -13 761 0 670 3 780 21 809 3 6 6 12 7 15 9
49 66 105 133 131 52 20 165 19 219 -1z"/>
<path d="M5553 7188 c-12 -20 -12 -1407 0 -1443 19 -57 57 -105 98 -126 73
-37 145 -7 194 82 l30 54 1 705 c0 388 -1 713 -4 723 -4 15 -20 17 -158 17
-111 0 -155 -3 -161 -12z"/>
<path d="M332 7118 c75 -98 90 -117 104 -132 6 -6 15 -18 20 -27 5 -9 21 -32
36 -50 15 -19 77 -99 138 -179 60 -80 117 -153 125 -163 8 -9 15 -21 15 -26 0
-5 4 -11 8 -13 4 -1 30 -32 56 -68 27 -36 54 -70 60 -75 6 -6 16 -18 21 -27 8
-13 309 -408 337 -443 5 -5 38 -48 73 -95 95 -124 109 -142 120 -154 6 -6 24
-31 40 -55 17 -25 39 -54 50 -66 11 -12 27 -31 35 -44 8 -13 22 -31 30 -41 8
-11 23 -29 33 -42 10 -13 44 -57 77 -99 33 -42 60 -82 60 -88 0 -7 4 -9 10 -6
5 3 10 1 10 -4 0 -11 75 -113 118 -161 12 -13 22 -28 22 -32 0 -3 7 -14 16
-23 9 -8 37 -44 62 -78 25 -34 48 -64 52 -67 3 -3 17 -21 30 -40 13 -19 27
-37 30 -40 3 -3 17 -21 30 -40 13 -19 27 -37 30 -40 3 -3 49 -61 100 -130 97
-127 112 -146 143 -182 9 -12 17 -24 17 -27 0 -3 10 -17 23 -31 12 -14 42 -52
66 -85 25 -33 47 -62 50 -65 4 -3 62 -79 131 -170 68 -91 128 -166 132 -168 4
-2 8 -8 8 -14 0 -5 6 -15 13 -22 6 -7 23 -28 37 -46 14 -18 58 -76 98 -129 41
-53 78 -97 83 -99 5 -2 15 2 23 10 42 40 393 265 619 398 82 48 159 97 172
108 31 27 59 35 133 37 62 1 63 1 102 -42 39 -42 40 -44 40 -116 0 -111 -30
-186 -105 -263 -16 -17 -104 -84 -195 -149 -91 -65 -193 -139 -227 -164 -34
-25 -87 -64 -118 -85 -74 -50 -63 -56 91 -52 96 2 128 0 168 -15 102 -38 197
-169 200 -275 0 -30 5 -54 9 -54 29 0 267 149 278 174 5 12 20 64 34 116 14
52 36 128 49 169 16 51 24 101 25 160 2 82 7 142 16 186 2 11 26 81 53 155 28
74 55 160 60 190 22 117 93 260 165 334 74 75 110 94 182 96 109 3 113 2 160
-41 52 -48 160 -196 186 -254 36 -82 62 -207 61 -295 -3 -215 -2 -343 1 -347
2 -2 21 50 42 114 47 147 101 253 165 325 60 67 96 82 191 76 66 -3 70 -5 112
-50 34 -35 51 -65 71 -125 15 -44 28 -90 31 -103 2 -13 24 -64 48 -114 24 -50
48 -102 54 -115 9 -23 12 -21 69 53 32 43 104 137 160 209 55 73 124 177 154
232 91 172 154 252 237 304 21 14 70 67 108 119 39 51 77 101 85 110 9 10 29
35 45 57 16 22 31 42 35 45 3 3 32 40 64 84 32 43 64 86 72 95 7 9 59 77 115
151 57 74 105 137 108 140 3 3 17 21 30 40 14 19 30 39 38 43 7 4 13 13 13 18
0 6 17 32 38 57 20 26 40 51 44 57 4 5 18 24 31 40 33 42 139 181 233 305 43
58 84 110 89 116 6 6 19 23 30 38 54 75 91 121 98 124 4 2 7 10 7 18 0 9 4 13
9 10 4 -3 13 5 18 17 9 17 85 121 151 202 4 6 21 28 37 50 17 22 32 42 35 45
4 3 52 66 108 140 115 152 105 140 152 200 19 25 38 50 42 55 4 6 21 26 38 46
16 20 30 41 30 47 0 6 4 12 8 14 4 2 23 23 42 48 19 25 37 47 40 50 3 3 25 32
50 65 24 33 50 66 57 73 7 7 13 17 13 20 0 4 10 19 23 32 12 14 37 45 55 68
l33 42 -971 0 -970 0 -2 -787 c0 -434 -1 -794 -1 -800 1 -7 -2 -13 -6 -13 -4
0 -7 -9 -8 -19 -1 -10 -7 -45 -13 -77 -6 -33 -13 -68 -14 -79 -13 -84 -96
-259 -159 -337 -140 -171 -270 -264 -458 -326 -84 -27 -127 -37 -279 -58 -43
-6 -416 -6 -450 0 -14 3 -47 7 -75 11 -151 18 -358 97 -464 177 -71 54 -190
173 -231 233 -74 107 -139 279 -154 405 -4 30 -8 64 -11 75 -2 11 -4 374 -4
808 l-1 787 -120 0 -120 0 -1 -67 c-2 -101 -7 -159 -25 -253 -20 -102 -46
-168 -91 -233 l-34 -48 51 -52 c70 -72 127 -193 155 -327 1 -3 5 -30 9 -60 5
-30 10 -63 12 -73 15 -80 22 -575 10 -680 -14 -120 -63 -253 -122 -334 -41
-56 -152 -164 -207 -202 -123 -84 -317 -146 -522 -166 -65 -6 -461 -7 -510 -1
-16 2 -57 6 -90 10 -33 4 -68 9 -77 12 -9 3 -25 6 -35 8 -117 23 -256 79 -342
139 -74 50 -199 184 -239 256 -20 36 -48 102 -61 146 -24 77 -25 90 -27 390
-2 281 7 436 30 545 13 62 16 76 32 124 24 74 77 164 129 219 l46 48 -34 47
c-73 100 -113 274 -116 495 l-1 57 -991 0 -990 0 63 -82z"/>
<path d="M4804 4326 c-23 -14 -52 -40 -66 -58 -52 -68 -123 -231 -132 -304 -4
-33 -54 -183 -96 -289 -17 -43 -20 -59 -25 -155 -11 -174 -14 -198 -39 -271
-14 -41 -39 -123 -55 -184 -18 -66 -37 -114 -47 -120 -9 -5 -31 -19 -48 -30
-101 -67 -226 -137 -274 -155 -31 -12 -84 -41 -117 -64 l-62 -43 19 61 c12 37
20 92 20 141 1 74 -2 85 -33 140 -25 42 -48 68 -83 89 -50 31 -47 31 -216 23
-58 -3 -86 1 -240 35 -131 29 -134 31 -77 65 101 60 533 363 717 502 51 38 79
76 103 141 21 56 21 89 2 117 -13 19 -19 20 -51 12 -19 -6 -45 -19 -57 -29
-24 -21 -152 -100 -162 -100 -3 0 -71 -42 -150 -92 -80 -51 -160 -102 -177
-112 -234 -138 -413 -289 -513 -429 l-48 -69 -3 -93 c-3 -88 -2 -96 21 -123
17 -20 41 -34 73 -41 46 -11 83 -14 307 -26 104 -5 155 -10 200 -19 45 -9 109
-28 125 -38 16 -10 16 -13 1 -31 -63 -78 -330 -351 -391 -401 -28 -22 -248
-228 -352 -329 -11 -10 -56 -50 -101 -89 -192 -168 -241 -242 -242 -365 0 -84
13 -105 67 -105 53 0 106 33 184 114 81 83 127 127 269 253 55 49 154 141 220
206 205 198 329 316 365 346 76 62 150 146 182 207 l15 30 8 -25 c12 -42 58
-164 65 -172 12 -13 72 17 123 62 27 22 85 59 130 82 45 22 86 45 92 50 5 5
15 9 23 9 11 0 13 -8 7 -37 -4 -21 -9 -51 -12 -68 -3 -16 -10 -60 -17 -97 -14
-72 -14 -104 -1 -338 13 -225 10 -374 -7 -435 -4 -16 -11 -52 -14 -80 -10 -89
-34 -176 -56 -207 -28 -40 -90 -67 -140 -62 -75 7 -87 25 -173 266 -26 74 -55
118 -76 118 -26 0 -69 -58 -82 -109 -26 -102 -11 -170 79 -361 61 -127 122
-198 204 -236 82 -39 109 -38 188 1 88 44 159 108 195 174 15 27 48 110 73
183 54 159 61 231 54 568 -1 47 1 99 3 115 3 17 11 66 17 110 7 44 14 89 16
100 2 11 6 56 10 100 5 78 18 174 30 225 3 14 5 76 6 138 0 134 7 146 103 192
60 29 134 89 325 268 71 67 74 71 62 96 -16 35 -34 31 -191 -42 -163 -77 -171
-80 -166 -50 3 12 7 54 10 93 3 38 8 86 10 105 3 19 7 67 10 105 2 39 13 96
24 128 11 31 32 119 47 195 24 116 32 141 55 165 34 34 54 34 75 1 25 -38 55
-226 49 -305 -11 -141 -8 -239 9 -264 31 -48 120 -71 147 -39 6 7 10 52 9 101
-1 48 -2 138 -3 198 0 61 1 130 4 154 11 94 -38 261 -108 367 -87 132 -111
155 -163 160 -36 4 -53 0 -86 -20z"/>
<path d="M6748 4270 c-44 -13 -131 -66 -159 -97 -51 -55 -143 -220 -189 -338
-25 -63 -64 -140 -85 -165 -29 -36 -75 -131 -98 -200 -41 -125 -87 -239 -123
-302 -19 -33 -34 -63 -34 -67 0 -5 -9 -16 -19 -25 -18 -17 -20 -16 -26 6 -4
13 -25 58 -46 100 -21 43 -41 88 -43 100 -19 94 -60 220 -96 294 -23 48 -57
135 -76 194 -37 118 -54 144 -101 154 -85 19 -168 -98 -251 -354 -22 -69 -57
-163 -76 -208 -20 -46 -36 -92 -36 -101 0 -28 35 -54 64 -47 23 6 159 112 184
144 17 22 28 9 56 -69 13 -35 44 -104 68 -154 46 -91 163 -397 173 -451 5 -24
-5 -45 -53 -119 -45 -67 -71 -121 -102 -213 -23 -68 -63 -169 -90 -225 -51
-109 -89 -214 -113 -312 -8 -33 -24 -94 -36 -135 -22 -81 -27 -154 -11 -194 8
-23 15 -26 56 -26 49 0 59 7 137 100 35 43 179 321 227 440 12 30 30 66 40 80
10 14 43 77 75 140 70 140 199 352 265 438 49 62 73 120 85 210 12 88 58 183
114 236 36 34 165 321 264 586 36 96 78 197 93 224 52 93 72 254 40 330 -16
37 -27 41 -78 26z"/>
<path d="M4887 3613 c-17 -31 -38 -121 -42 -187 -4 -44 -9 -84 -12 -89 -3 -6
-2 -8 3 -6 5 3 20 11 34 18 24 11 25 16 20 59 -3 26 -3 84 0 130 5 82 5 88 -3
75z"/>
<path d="M5181 3231 c-1 -38 -28 -67 -241 -264 -117 -108 -134 -121 -204 -157
l-50 -26 -2 -118 c-1 -65 -7 -139 -13 -164 -16 -74 -22 -117 -26 -193 -5 -83
-12 -134 -27 -209 -6 -30 -12 -135 -13 -233 -1 -150 1 -176 12 -160 8 10 23
29 34 43 11 14 33 43 50 65 16 22 41 54 54 70 13 17 43 57 68 90 25 33 53 68
61 78 9 9 16 20 16 23 0 3 6 11 13 18 6 7 21 25 32 40 11 16 25 33 30 40 6 6
37 47 70 91 33 44 63 82 66 85 3 3 39 50 80 105 41 55 76 102 80 105 3 3 40
50 81 106 42 56 84 108 92 117 9 8 16 20 16 26 0 6 5 11 10 11 6 0 10 5 10 10
0 6 7 18 16 28 42 47 75 90 90 117 15 29 15 32 -29 122 l-45 92 -29 -21 c-15
-12 -30 -25 -33 -29 -15 -18 -56 -29 -113 -29 -62 0 -66 2 -103 40 -26 26 -41
52 -45 77 l-6 38 -2 -34z"/>
<path d="M4085 2410 c-33 -28 -62 -50 -65 -50 -3 0 -11 -4 -18 -9 -11 -7 -8
-17 13 -50 15 -22 32 -41 37 -41 5 0 6 -4 3 -10 -3 -5 -2 -10 3 -10 5 0 26
-25 47 -55 20 -30 38 -55 40 -55 1 0 1 74 1 165 -1 91 -1 165 -1 165 0 0 -27
-23 -60 -50z"/>
</g>
</svg>
